Analisis exploratorio - tiempos de llegada
…
# Id de estados
estados <- read_csv("../datos/df_mxstate.csv")
# Muestra seleccionada

Muestra seleccionada

muestra_selec <- read_csv("../datos/4-ConteoRapido18MUESTRA-ELECCION-PRESIDENCIAL.csv") %>% 
  mutate(CLAVE_CASILLA = paste0(str_sub(ID, 2, 3), str_sub(ID, 6, -1)))
nrow(muestra_selec)

## [1] 7787

muestra_selec

## # A tibble: 7,787 x 19
##    ID    iD_ESTADO ID_DISTRITO_FED SECCION TIPO_CASILLA ID_CASILLA EXT_CONTIGUA
##    <chr> <chr>     <chr>              <dbl> <chr>             <dbl>        <dbl>
##  1 A010 01        01                   344 C                     3            0
##  2 A010 01        01                   356 C                     1            0
##  3 A010 01        01                   358 B                     1            0
##  4 A010 01        01                   362 S                     1            0
##  5 A010 01        01                   363 B                     1            0
##  6 A010 01        01                   363 C                     2            0
##  7 A010 01        01                   370 C                     1            0
##  8 A010 01        01                   377 C                     1            0
##  9 A010 01        01                   390 C                     1            0
## 10 A010 01        01                   392 C                     7            0
## #  with 7,777 more rows, and 12 more variables: TIPO_SECCION <dbl>,
## #   LISTA_NOMINAL <dbl>, ID_MUNICIPIO <dbl>, ID_DIST_LOC <dbl>,
## #   ID_ESTRATO_F <dbl>, ESTRATO_F <lgl>, ID_ESTRATO_L <dbl>, ESTRATO_L <lgl>,
## #   ID_AREA_RESPONSABILIDAD <dbl>, NUM_ZORE <dbl>, CIRCUNSCRIPCION <dbl>,
## #   CLAVE_CASILLA <chr>
…
