Simulación de tiempos de llegada
…
Muestras más grandes acumulan más muestra antes, lo cual reduce su varianza

Evaluamos en cada hora de salida el sesgo, varianza y error cuadrático medio de los estimadores puntuales.

En este ejemplo consideraremos la proporción de voto estimado para RAC en Michoacán

# cortes (horas después de 18:30 en la elección de 2018)
cortes <- c(1.5, 2.5, 3, 3.5, 4, 4.5, 5.5)
# tamaño de muestra
props_muestra <- c(0.05, 0.10, 0.20)
estado_sim <- "MICH"
n_sim <- 400

## # A tibble: 21 x 7
## # Groups:   candidato [3]
##    candidato prop_cand hora_salida acumulado_tot corte prop_muestra rep  
##    <chr>         <dbl>       <dbl>         <dbl> <dbl>        <dbl> <chr>
##  1 AMLO_1        0.519        1.50         17578   1.5         0.05 a    
##  2 JAMK_1        0.163        1.50         17578   1.5         0.05 a    
##  3 RAC_1         0.207        1.50         17578   1.5         0.05 a    
##  4 AMLO_1        0.499        2.50         47481   2.5         0.05 a    
##  5 JAMK_1        0.172        2.50         47481   2.5         0.05 a    
##  6 RAC_1         0.219        2.50         47481   2.5         0.05 a    
##  7 AMLO_1        0.495        3.00         62703   3           0.05 a    
##  8 JAMK_1        0.174        3.00         62703   3           0.05 a    
##  9 RAC_1         0.222        3.00         62703   3           0.05 a    
## 10 AMLO_1        0.497        3.47         73942   3.5         0.05 a    
## # … with 11 more rows
…
En primer lugar, el error cuadrático medio es menor si se selecciona una muestra inicial más grande, y se reduce conforme la hora de censura es más tarde:

## # A tibble: 3 x 3
##   state_abbr candidato prop_obs
##   <chr>      <chr>        <dbl>
## 1 MICH       AMLO_1       0.500
## 2 MICH       JAMK_1       0.170
## 3 MICH       RAC_1        0.224

## Joining, by = "candidato"

## # A tibble: 25,200 x 6
##    corte prop_muestra candidato  sesgo_2 varianza   recm
##    <dbl> <fct>        <chr>        <dbl>    <dbl>  <dbl>
##  1   1.5 0.05         AMLO_1    0.000185 0.000349 0.0231
##  2   1.5 0.05         AMLO_1    0.000185 0.000349 0.0231
##  3   1.5 0.05         AMLO_1    0.000185 0.000349 0.0231
##  4   1.5 0.05         AMLO_1    0.000185 0.000349 0.0231
##  5   1.5 0.05         AMLO_1    0.000185 0.000349 0.0231
##  6   1.5 0.05         AMLO_1    0.000185 0.000349 0.0231
##  7   1.5 0.05         AMLO_1    0.000185 0.000349 0.0231
##  8   1.5 0.05         AMLO_1    0.000185 0.000349 0.0231
##  9   1.5 0.05         AMLO_1    0.000185 0.000349 0.0231
## 10   1.5 0.05         AMLO_1    0.000185 0.000349 0.0231
## # … with 25,190 more rows
…
